/Users/mariomesaglio/SVN/B_00000_v2.1/01_Workspace/05_JAVA/DC_SC_CacheManager_Core/src/com/entel/frw/comp/cache/monitoring/CacheReports.java
/Users/mariomesaglio/SVN/B_00000_v2.1/01_Workspace/05_JAVA/DC_SC_CacheManager_Core/src/com/entel/frw/comp/cache/core/test/cases/Test_ExpiredKeys.java
/Users/mariomesaglio/SVN/B_00000_v2.1/01_Workspace/05_JAVA/DC_SC_CacheManager_Core/src/com/entel/frw/comp/cache/core/utils/CacheUtils.java
/Users/mariomesaglio/SVN/B_00000_v2.1/01_Workspace/05_JAVA/DC_SC_CacheManager_Core/src/com/entel/frw/comp/cache/core/test/cases/Test_StallExpiration.java
/Users/mariomesaglio/SVN/B_00000_v2.1/01_Workspace/05_JAVA/DC_SC_CacheManager_Core/src/com/entel/frw/comp/cache/core/exception/ValueIsNullException.java
/Users/mariomesaglio/SVN/B_00000_v2.1/01_Workspace/05_JAVA/DC_SC_CacheManager_Core/src/com/entel/frw/comp/cache/core/test/cases/Test_KeyUpdate.java
/Users/mariomesaglio/SVN/B_00000_v2.1/01_Workspace/05_JAVA/DC_SC_CacheManager_Core/src/com/entel/frw/comp/cache/monitoring/CacheMonitor.java
/Users/mariomesaglio/SVN/B_00000_v2.1/01_Workspace/05_JAVA/DC_SC_CacheManager_Core/src/com/entel/frw/comp/cache/core/CacheValue.java
/Users/mariomesaglio/SVN/B_00000_v2.1/01_Workspace/05_JAVA/DC_SC_CacheManager_Core/src/com/entel/frw/comp/cache/core/test/cases/Test_MaxCount.java
/Users/mariomesaglio/SVN/B_00000_v2.1/01_Workspace/05_JAVA/DC_SC_CacheManager_Core/src/com/entel/frw/comp/cache/core/test/CacheTest.java
/Users/mariomesaglio/SVN/B_00000_v2.1/01_Workspace/05_JAVA/DC_SC_CacheManager_Core/src/com/entel/frw/comp/cache/core/test/executors/RandomSetter.java
/Users/mariomesaglio/SVN/B_00000_v2.1/01_Workspace/05_JAVA/DC_SC_CacheManager_Core/src/com/entel/frw/comp/cache/monitoring/CachePurge.java
/Users/mariomesaglio/SVN/B_00000_v2.1/01_Workspace/05_JAVA/DC_SC_CacheManager_Core/src/com/entel/frw/comp/cache/config/CacheConfig.java
/Users/mariomesaglio/SVN/B_00000_v2.1/01_Workspace/05_JAVA/DC_SC_CacheManager_Core/src/com/entel/frw/comp/cache/core/test/cases/Test_FullRefresh.java
/Users/mariomesaglio/SVN/B_00000_v2.1/01_Workspace/05_JAVA/DC_SC_CacheManager_Core/src/com/entel/frw/comp/cache/core/CacheCore.java
